<svg xmlns="http://www.w3.org/2000/svg" width="29.56" height="57.56" viewBox="0 0 29.56 57.56">
  <title>arrow-left</title>
  <path d="M.71,28,29.56,56.85l-.71.71L0,28.71Z" style="fill: #fff;fill-rule: evenodd"/>
  <path d="M28.85,0,0,28.85l.71.71L29.56.71Z" style="fill: #fff;fill-rule: evenodd"/>
  <path d="M1.28,29.28v-1" style="fill: #fff;fill-rule: evenodd"/>
</svg>
