<svg xmlns="http://www.w3.org/2000/svg" width="37.99" height="19.99" viewBox="0 0 37.99 19.99">
  <title>arrow-up</title>
  <path d="M18.21.72,37.28,20l.71-.72L18.93,0Z" style="fill: #fff;fill-rule: evenodd"/>
  <path d="M0,19.28,19.07,0l.71.72L.71,20Z" style="fill: #fff;fill-rule: evenodd"/>
  <path d="M19.5,1.3h-1" style="fill: #fff;fill-rule: evenodd"/>
</svg>
